id,name,model_id:id,group_id:id,perm_read,perm_write,perm_create,perm_unlink
access_account_period_user,account.period,model_account_period,account.group_account_user,1,1,1,0
access_account_period_line_user,account.period.line,model_account_period_line,account.group_account_user,1,1,1,0
access_ifrs_user,ifrs.ifrs,model_ifrs_ifrs,account.group_account_user,1,1,1,0
access_ifrs_line_user,ifrs.lines,model_ifrs_lines,account.group_account_user,1,1,1,0
access_ifrs_manager,ifrs.ifrs,model_ifrs_ifrs,account.group_account_manager,1,1,1,0
access_ifrs_line_manager,ifrs.lines,model_ifrs_lines,account.group_account_manager,1,1,1,0
